{
	"source": "UE",
	"applications": [
		{
			"app_key": "application.generated.ue.citycubebuilder-13942748.ue4editor.exe",
			"launch_type": "url",
			"url": "steam://launch/",
			"action_manifest_path": "B:/AProject/Unreal/CityCubeBuilder/Config/SteamVRBindings/steamvr_manifest.json",
			"strings":
			{
				"en_us":
				{
					"name": "CityCubeBuilder-13942748 [UE Editor]"
				}
			}
		}
	]
}